{
  "slackToken": "qwerty",
  "jenkinsToken": "11efae9a9b7adb1b06c56cc3bfcc0bfc63",
  "view": "Automation",
  "config": [
    {
      "environment": "stage",
      "suite": "Smoke tests Chrome",
      "jobId": "Smoke tests Chrome"
    },
    {
      "environment": "sb01",
      "suite": "Smoke tests Chrome",
      "jobId": "Smoke tests Chrome"
    },
    {
      "environment": "stage",
      "suite": "Smoke tests Chrome",
      "jobId": "Smoke tests Chrome"
    },
    {
      "environment": "sb01",
      "suite": "Smoke tests Firefox",
      "jobId": "Smoke tests Firefox"
    },
    {
      "environment": "stage",
      "suite": "Smoke tests Firefox",
      "jobId": "Smoke tests Firefox"
    }
  ]
}